…
# two-week repo rate for April 1st, 2020
repo2w(as.Date("2020-04-01")) 
# A tibble: 1 x 2
  date_valid REPO_2W
  <date>       <dbl>
1 2020-04-01    0.01

# complete list of FX rates for yesterday
cnbfxrate()
# A tibble: 33 x 6
   date_valid country    currency_name amount currency  rate
   <date>     <chr>      <chr>          <int> <chr>    <dbl>
 1 2021-04-29 Austrálie  dolar              1 AUD      16.6 
 2 2021-04-29 Brazílie   real               1 BRL       3.97
 3 2021-04-29 Bulharsko  lev                1 BGN      13.2 
 4 2021-04-29 Čína       žen-min-pi         1 CNY       3.29
 5 2021-04-29 Dánsko     koruna             1 DKK       3.47
 6 2021-04-29 EMU        euro               1 EUR      25.8 
 7 2021-04-29 Filipíny   peso             100 PHP      44.0 
 8 2021-04-29 Hongkong   dolar              1 HKD       2.74
 9 2021-04-29 Chorvatsko kuna               1 HRK       3.42
10 2021-04-29 Indie      rupie            100 INR      28.7 
# … with 23 more rows
…
