…
The `czechrates::cnbfxrate()` function has two parameters:

- `date` = date valid for the FX rate; default is yesterday (`Sys.Date() - 1`)

- `specific_currency` ISO Code of currency, default is "ALL" / meaning a complete list of FX rates quoted for a given day

As some currencies are not quoted per single unit (e.g. Indonesian rupiah is quoted per 1000 IDR, and Hungarian forint per 100 HUF) the function returns not only the rate, but also quoted amount per currency.



```r
# complete list of ČNB FX rates for yesterday
cnbfxrate()
## # A tibble: 31 × 4
##    date_valid currency_code amount  rate
##    <date>     <chr>          <dbl> <dbl>
##  1 2023-09-07 AUD                1 14.5 
##  2 2023-09-07 BGN                1 12.5 
##  3 2023-09-07 BRL                1  4.57
##  4 2023-09-07 CAD                1 16.7 
##  5 2023-09-07 CHF                1 25.5 
##  6 2023-09-07 CNY                1  3.11
##  7 2023-09-07 DKK                1  3.27
##  8 2023-09-07 EUR                1 24.4 
##  9 2023-09-07 GBP                1 28.4 
## 10 2023-09-07 HKD                1  2.90
## # ℹ 21 more rows
…
